[gd_scene load_steps=6 format=2]

[ext_resource path="res://ressources importees/Player-kinematic-controle-fleches.gd" type="Script" id=1]

[sub_resource type="CapsuleShape" id=1]

radius = 1.41
height = 1.4

[sub_resource type="CapsuleMesh" id=2]

radius = 1.0
mid_height = 1.0
radial_segments = 64
rings = 8

[sub_resource type="CubeMesh" id=3]

size = Vector3( 2, 2, 2 )
subdivide_width = 0
subdivide_height = 0
subdivide_depth = 0

[sub_resource type="CubeMesh" id=4]

size = Vector3( 2, 2, 2 )
subdivide_width = 0
subdivide_height = 0
subdivide_depth = 0

[node name="PlayerkineticBody" type="KinematicBody" index="0"]

input_ray_pickable = true
input_capture_on_drag = false
collision_layer = 1
collision_mask = 1
axis_lock_linear_x = false
axis_lock_linear_y = false
axis_lock_linear_z = false
axis_lock_angular_x = false
axis_lock_angular_y = false
axis_lock_angular_z = false
collision/safe_margin = 0.001
script = ExtResource( 1 )

[node name="CollisionShape" type="CollisionShape" parent="." index="0"]

transform = Transform( 1, 0, 0, 0, -1.62921e-07, -1, 0, 1, -1.62921e-07, 0, 2.03552, 0 )
shape = SubResource( 1 )
disabled = false
_sections_unfolded = [ "Transform" ]

[node name="silhouette_MeshInstance" type="MeshInstance" parent="." index="1"]

transform = Transform( 1, 0, 0, 0, -1.62921e-07, -1, 0, 1, -1.62921e-07, 0, 1.5, 0 )
layers = 1
material_override = null
cast_shadow = 1
extra_cull_margin = 0.0
use_in_baked_light = false
lod_min_distance = 0.0
lod_min_hysteresis = 0.0
lod_max_distance = 0.0
lod_max_hysteresis = 0.0
mesh = SubResource( 2 )
skeleton = NodePath("..")
material/0 = null
_sections_unfolded = [ "Transform" ]

[node name="tete_MeshInstance" type="MeshInstance" parent="silhouette_MeshInstance" index="0"]

transform = Transform( 0.5, 0, 0, 0, 0.5, 0, 0, 0, 0.5, 0.800575, -0.172713, -1.69093 )
layers = 1
material_override = null
cast_shadow = 1
extra_cull_margin = 0.0
use_in_baked_light = false
lod_min_distance = 0.0
lod_min_hysteresis = 0.0
lod_max_distance = 0.0
lod_max_hysteresis = 0.0
mesh = SubResource( 3 )
skeleton = NodePath("..")
material/0 = null
_sections_unfolded = [ "Transform" ]

[node name="pieds_MeshInstance2" type="MeshInstance" parent="silhouette_MeshInstance" index="1"]

transform = Transform( 1, 0, 0, 0, 0.5, 0, 0, 0, 0.1, 0.647604, -0.00419118, 1.32803 )
layers = 1
material_override = null
cast_shadow = 1
extra_cull_margin = 0.0
use_in_baked_light = false
lod_min_distance = 0.0
lod_min_hysteresis = 0.0
lod_max_distance = 0.0
lod_max_hysteresis = 0.0
mesh = SubResource( 4 )
skeleton = NodePath("..")
material/0 = null
_sections_unfolded = [ "Transform" ]


